<svg xmlns="http://www.w3.org/2000/svg" width="76.383" height="66.241" viewBox="0 0 76.383 66.241">
  <g id="Group_3768" data-name="Group 3768" transform="translate(-860.072 -1485.939)">
    <path id="Path_1054" data-name="Path 1054" d="M424.248,258.18l-19.176-33.026,19.015-33.122,38.193-.093,19.175,33.03-19.014,33.119Z" transform="translate(455 1294)" fill="#58c9cb"/>
    <g id="Group_4587" data-name="Group 4587">
      <path id="Path_1055" data-name="Path 1055" d="M443.215,250.63q-7.158,0-14.316,0c-1.567,0-1.731-.169-1.735-1.751-.005-2.062-.047-4.126.012-6.187a11.471,11.471,0,0,1,11.649-11.475q4.549-.06,9.1,0a11.475,11.475,0,0,1,11.42,11.329c.054,2.183-.024,4.369.03,6.551.029,1.177-.477,1.555-1.6,1.546-4.853-.034-9.706-.015-14.559-.014m-2.573-17.379c-4.912-.514-8.785,1.483-10.613,5.377-1.518,3.231-.732,6.633-.928,9.961h4.335c0-1.472,0-2.842,0-4.213,0-.718.023-1.5.978-1.5.972,0,.963.792.964,1.5,0,1.4,0,2.8,0,4.243h15.538c0-1.433,0-2.8,0-4.16,0-.74-.043-1.6,1.009-1.58.957.021.936.829.937,1.533,0,1.4,0,2.807,0,4.185h4.528c0-2.231.018-4.371-.012-6.509a7.83,7.83,0,0,0-.255-1.674c-1.175-4.945-6.635-8.391-11.231-7.044.2,3.09.368,6.2.641,9.294a2.406,2.406,0,0,1-.883,2.215c-2.7,2.46-2.081,2.427-4.728.043A2.594,2.594,0,0,1,440,242.49c.282-3.05.436-6.112.645-9.239m2.788,11.132c.364-.493,1.1-1.027,1.082-1.538-.1-3.206-.371-6.406-.591-9.7l-1.223.08a2.074,2.074,0,0,0-.107.346c-.189,2.73-.3,5.47-.594,8.19a2.3,2.3,0,0,0,1.433,2.621" transform="translate(455 1294)" fill="#fff" fill-rule="evenodd"/>
      <path id="Path_1056" data-name="Path 1056" d="M443.3,211.793a8.734,8.734,0,1,1-8.73,8.689,8.729,8.729,0,0,1,8.73-8.689m-.072,1.948a6.787,6.787,0,1,0,6.794,6.767,6.726,6.726,0,0,0-6.794-6.767" transform="translate(455 1294)" fill="#fff" fill-rule="evenodd"/>
      <path id="Path_1057" data-name="Path 1057" d="M454.232,210.979l-2.643,2.933c-.431-.764-.724-1.284-1.125-1.992.707-.572,1.76-1.426,2.945-2.387a6.4,6.4,0,0,1-1.482-.759.933.933,0,0,1,.757-1.54,12.646,12.646,0,0,1,2.892.037,1.629,1.629,0,0,1,.975,1.082,9.928,9.928,0,0,1,.051,2.165c.006.662.027,1.477-.814,1.476-.475,0-.951-.6-1.556-1.015" transform="translate(455 1294)" fill="#fff" fill-rule="evenodd"/>
      <path id="Path_1058" data-name="Path 1058" d="M457.693,221.491h-3.662V219.6h4.123c-.154-.331-.344-.543-.323-.734.043-.4.082-.962.339-1.133a1.255,1.255,0,0,1,1.174.1,11.414,11.414,0,0,1,2.04,2.063,1.5,1.5,0,0,1-.059,1.364A5.707,5.707,0,0,1,459.8,222.8a6.928,6.928,0,0,1-1.634.625l-.475-1.936" transform="translate(455 1294)" fill="#fff" fill-rule="evenodd"/>
      <path id="Path_1059" data-name="Path 1059" d="M444.228,206.055v3.729h-1.865v-4.16c-.407.194-.65.411-.874.393-.364-.028-.9-.111-1.026-.352a1.282,1.282,0,0,1,.052-1.166,10.763,10.763,0,0,1,2.052-2.033,1.638,1.638,0,0,1,1.45.044,7.828,7.828,0,0,1,1.482,1.407c.473.482,1.206,1.016.578,1.7-.325.354-1.11.284-1.849.439" transform="translate(455 1294)" fill="#fff" fill-rule="evenodd"/>
      <path id="Path_1060" data-name="Path 1060" d="M436.6,212.173l-1.537,1.427c-.9-1.019-1.8-2.031-2.876-3.251-.291.746-.333,1.132-.547,1.329-.234.213-.72.43-.932.322a1.488,1.488,0,0,1-.743-.936c-.522-3.567-.207-3.9,3.342-3.856.678.009,1.463.022,1.421.874-.024.465-.62.9-.957,1.348l-.531.126c.546.408,1.1.808,1.636,1.226s1.06.854,1.724,1.391" transform="translate(455 1294)" fill="#fff" fill-rule="evenodd"/>
      <path id="Path_1061" data-name="Path 1061" d="M428.744,219.577h3.745v1.886h-4.1c.145.331.312.528.292.7-.047.4-.064.958-.319,1.144a1.227,1.227,0,0,1-1.163-.064,11.387,11.387,0,0,1-2.041-2.045,1.49,1.49,0,0,1,.022-1.358,10.42,10.42,0,0,1,1.5-1.567c.486-.493,1.041-1.162,1.708-.525.331.317.232,1.084.359,1.825" transform="translate(455 1294)" fill="#fff" fill-rule="evenodd"/>
    </g>
  </g>
</svg>
