<svg xmlns="http://www.w3.org/2000/svg" width="60" height="70" viewBox="0 0 60 70">
  <g id="Group_5163" data-name="Group 5163" transform="translate(-476 -936)">
    <path id="Path_2120" data-name="Path 2120" d="M-1,15,29.6-12,59,15V58H-1Z" transform="translate(477 948)" fill="#386c93"/>
    <path id="Path_1970" data-name="Path 1970" d="M112.96,46.05a.586.586,0,0,1,.072-.821l4.286-3.6a.583.583,0,0,1,.61-.087l3.952,1.751,2.957-2.528-.53-.051a.583.583,0,0,1,.1-1.162l1.91.167a.578.578,0,0,1,.392.2.556.556,0,0,1,.131.421l-.167,1.91a.583.583,0,0,1-.581.53h-.051a.585.585,0,0,1-.53-.632l.044-.494-3.2,2.739a.567.567,0,0,1-.61.087l-3.959-1.751-4.01,3.371a.561.561,0,0,1-.371.138.522.522,0,0,1-.444-.189Zm15.677,11.528H110.781A.583.583,0,0,1,110.2,57V55.792a1.782,1.782,0,0,1,1.264-1.707V49.413a.583.583,0,0,1,.581-.581h2.419a.583.583,0,0,1,.581.581V54h.726V46.166a.583.583,0,0,1,.581-.581h2.412a.583.583,0,0,1,.581.581V54h.726V47.873a.583.583,0,0,1,.581-.581h2.419a.583.583,0,0,1,.581.581V54h.726V44.575a.583.583,0,0,1,.581-.581h2.419a.583.583,0,0,1,.581.581v9.5a1.8,1.8,0,0,1,1.264,1.707V56.99a.6.6,0,0,1-.588.589ZM125.542,54H126.8V45.156h-1.257Zm-4.308,0h1.257V48.454h-1.257Zm-4.308,0h1.257v-7.25h-1.257Zm-4.308-4.01V54h1.257v-4.01Zm15.437,5.8a.624.624,0,0,0-.624-.624H111.985a.624.624,0,0,0-.624.624v.624h16.694Zm8.115,2.986a5.27,5.27,0,0,1-7.453,7.453c-.044-.044-.08-.087-.124-.124a18.682,18.682,0,0,1-17.785,0,.992.992,0,0,1-.124.124,5.268,5.268,0,0,1-7.446-7.454c.044-.044.087-.08.124-.124a18.688,18.688,0,0,1,0-17.791.99.99,0,0,1-.124-.124,5.268,5.268,0,0,1,7.453-7.446c.044.044.08.087.124.124a18.655,18.655,0,0,1,17.785.007.992.992,0,0,1,.124-.124,5.268,5.268,0,0,1,7.453,7.446c-.044.044-.087.08-.124.124a18.629,18.629,0,0,1,0,17.784c.036.044.079.08.116.124Zm-6.625-24.656a4.122,4.122,0,1,0,2.906-1.2A4.112,4.112,0,0,0,129.545,34.121Zm-25.478,5.8a4.122,4.122,0,1,0-1.2-2.906A4.076,4.076,0,0,0,104.067,39.926Zm5.8,25.477a4.1,4.1,0,1,0-5.812,0A4.122,4.122,0,0,0,109.872,65.4Zm18.023-.247a5.264,5.264,0,0,1,7.2-7.206,17.522,17.522,0,0,0,0-16.382,5.264,5.264,0,0,1-7.926-4.548,5.193,5.193,0,0,1,.719-2.659,17.522,17.522,0,0,0-16.382,0,5.264,5.264,0,0,1-4.548,7.926,5.194,5.194,0,0,1-2.659-.719,17.522,17.522,0,0,0,0,16.382,5.264,5.264,0,0,1,7.926,4.548,5.193,5.193,0,0,1-.719,2.659,17.5,17.5,0,0,0,16.389,0Zm7.453-5.557a4.1,4.1,0,1,0,0,5.8A4.112,4.112,0,0,0,135.349,59.6Z" transform="translate(385.848 930.835)" fill="#fff"/>
  </g>
</svg>
