<svg xmlns="http://www.w3.org/2000/svg" width="21.024" height="20.125" viewBox="0 0 21.024 20.125">
  <g id="Group_3208" data-name="Group 3208" transform="translate(-334.519 -929)">
    <rect id="Rectangle_972" data-name="Rectangle 972" width="18.648" height="19" transform="translate(336.313 929)" fill="none" opacity="0"/>
    <g id="noun-duration-3956212" transform="translate(334.644 929.69)">
      <path id="Path_312" data-name="Path 312" d="M398.136,416.154a.38.38,0,0,1-.265.473.324.324,0,0,1-.1.016.382.382,0,0,1-.369-.281l-1.458-5.1h.8Z" transform="translate(-383.532 -397.332)" fill="#fff" stroke="#fff" stroke-width="0.25"/>
      <path id="Path_313" data-name="Path 313" d="M255.966,411.244l-1.458,5.1a.382.382,0,0,1-.369.281.323.323,0,0,1-.1-.015.38.38,0,0,1-.265-.473l1.4-4.9Z" transform="translate(-247.599 -397.319)" fill="#fff" stroke="#fff" stroke-width="0.25"/>
      <path id="Path_314" data-name="Path 314" d="M341.25,411.25h.769v3.462a.385.385,0,1,1-.769,0Z" transform="translate(-331.248 -397.326)" fill="#fff" stroke="#fff" stroke-width="0.25"/>
      <path id="Path_315" data-name="Path 315" d="M113.75,376.25h20.774v.769H113.75Z" transform="translate(-113.75 -363.864)" fill="#fff" stroke="#fff" stroke-width="0.25"/>
      <g id="Rectangle_974" data-name="Rectangle 974" transform="translate(1.037 0)" fill="none" stroke="#fff" stroke-width="1.5">
        <path d="M2,0H16.246a2,2,0,0,1,2,2v9.5a0,0,0,0,1,0,0H0a0,0,0,0,1,0,0V2A2,2,0,0,1,2,0Z" stroke="none"/>
        <path d="M2,.75H16.246A1.25,1.25,0,0,1,17.5,2v8.753a0,0,0,0,1,0,0H.75a0,0,0,0,1,0,0V2A1.25,1.25,0,0,1,2,.75Z" fill="none"/>
      </g>
    </g>
  </g>
</svg>
