<svg width="30" height="30" viewBox="0 0 30 30" fill="none" xmlns="http://www.w3.org/2000/svg">
<g clip-path="url(#clip0_1083_252)">
<path d="M14.9992 28.4495C22.4114 28.4495 28.4202 22.5408 28.4202 15.2521C28.4202 7.96336 22.4114 2.05469 14.9992 2.05469C7.58694 2.05469 1.57812 7.96336 1.57812 15.2521C1.57812 22.5408 7.58694 28.4495 14.9992 28.4495Z" fill="white"/>
<path d="M14.9986 27.2846C21.7568 27.2846 27.2354 21.8973 27.2354 15.2517C27.2354 8.60607 21.7568 3.21875 14.9986 3.21875C8.24034 3.21875 2.76172 8.60607 2.76172 15.2517C2.76172 21.8973 8.24034 27.2846 14.9986 27.2846Z" stroke="#BFAA66" stroke-width="1.5"/>
<path d="M14.8242 7.61914V15.0806H22.6305" stroke="#BFAA66" stroke-width="1.5" stroke-linecap="round"/>
</g>
<defs>
<clipPath id="clip0_1083_252">
<rect width="30" height="30" fill="white"/>
</clipPath>
</defs>
</svg>
