<svg xmlns="http://www.w3.org/2000/svg" width="62" height="62" viewBox="0 0 62 62">
  <g id="Group_3911" data-name="Group 3911" transform="translate(-634 -459)">
    <circle id="Ellipse_71" data-name="Ellipse 71" cx="31" cy="31" r="31" transform="translate(634 459)" fill="#f8ce46"/>
    <path id="Polygon_14" data-name="Polygon 14" d="M12,0,24,20H0Z" transform="translate(678 478) rotate(90)" fill="#fff"/>
  </g>
</svg>
