<svg xmlns="http://www.w3.org/2000/svg" width="58" height="58" viewBox="0 0 58 58">
  <g id="Group_5172" data-name="Group 5172" transform="translate(-477 -2046)">
    <g id="Group_5130" data-name="Group 5130" transform="translate(0 288)">
      <rect id="Rectangle_2747" data-name="Rectangle 2747" width="58" height="58" transform="translate(477 1758)" fill="#183474"/>
    </g>
    <g id="Group_5162" data-name="Group 5162" transform="translate(118.556 -0.199)">
      <g id="Union_93" data-name="Union 93" transform="translate(11097 -373.002)" fill="none" stroke-linejoin="round" opacity="0.998">
        <path d="M-10705,2457.5a8.475,8.475,0,0,1,.3-2.24l-11.561-11.563a8.438,8.438,0,0,1-2.24.3,8.509,8.509,0,0,1-8.5-8.5,8.5,8.5,0,0,1,1.158-4.283l3.943,3.944,3.059-3.058-3.944-3.944a8.5,8.5,0,0,1,4.283-1.158,8.51,8.51,0,0,1,8.5,8.5,8.517,8.517,0,0,1-.3,2.237l11.563,11.564a8.479,8.479,0,0,1,2.234-.3,8.508,8.508,0,0,1,8.5,8.5,8.482,8.482,0,0,1-1.157,4.283l-3.944-3.944-3.056,3.058,3.944,3.941a8.485,8.485,0,0,1-4.286,1.16A8.512,8.512,0,0,1-10705,2457.5Z" stroke="none"/>
        <path d="M -10696.4990234375 2465.002685546875 C -10695.6162109375 2465.002685546875 -10694.7431640625 2464.84716796875 -10693.9228515625 2464.547119140625 L -10696.8642578125 2461.6083984375 C -10697.2548828125 2461.218017578125 -10697.2548828125 2460.5849609375 -10696.8642578125 2460.1943359375 L -10693.80859375 2457.13623046875 C -10693.62109375 2456.948486328125 -10693.3671875 2456.843017578125 -10693.1015625 2456.843017578125 C -10692.8369140625 2456.843017578125 -10692.58203125 2456.9482421875 -10692.39453125 2457.135986328125 L -10689.453125 2460.07666015625 C -10689.1552734375 2459.2578125 -10689 2458.386474609375 -10689 2457.503662109375 C -10689 2453.3671875 -10692.3642578125 2450.001953125 -10696.4990234375 2450.001953125 C -10697.16796875 2450.001953125 -10697.8310546875 2450.09033203125 -10698.4697265625 2450.2646484375 C -10698.8154296875 2450.359619140625 -10699.1875 2450.26123046875 -10699.4404296875 2450.007080078125 L -10711.0029296875 2438.442626953125 C -10711.2568359375 2438.18896484375 -10711.3544921875 2437.819091796875 -10711.2607421875 2437.47314453125 C -10711.087890625 2436.8369140625 -10711 2436.172607421875 -10711 2435.498291015625 C -10711 2431.36328125 -10714.365234375 2427.999267578125 -10718.501953125 2427.999267578125 C -10719.3828125 2427.999267578125 -10720.25390625 2428.154541015625 -10721.07421875 2428.45361328125 L -10718.1337890625 2431.3935546875 C -10717.9462890625 2431.581298828125 -10717.8408203125 2431.835693359375 -10717.8408203125 2432.100830078125 C -10717.8408203125 2432.365966796875 -10717.9462890625 2432.620361328125 -10718.1337890625 2432.807861328125 L -10721.1923828125 2435.8662109375 C -10721.3798828125 2436.053955078125 -10721.6337890625 2436.1591796875 -10721.8994140625 2436.1591796875 C -10721.8994140625 2436.1591796875 -10721.8994140625 2436.1591796875 -10721.8994140625 2436.1591796875 C -10722.1650390625 2436.1591796875 -10722.4189453125 2436.0537109375 -10722.6064453125 2435.8662109375 L -10725.5458984375 2432.926025390625 C -10725.845703125 2433.746337890625 -10726.0009765625 2434.617431640625 -10726.0009765625 2435.498291015625 C -10726.0009765625 2439.634765625 -10722.63671875 2443 -10718.501953125 2443 C -10717.8271484375 2443 -10717.162109375 2442.911376953125 -10716.5263671875 2442.73681640625 C -10716.181640625 2442.641357421875 -10715.8076171875 2442.739990234375 -10715.5546875 2442.994140625 L -10703.994140625 2454.556884765625 C -10703.740234375 2454.810791015625 -10703.6416015625 2455.181396484375 -10703.736328125 2455.52783203125 C -10703.912109375 2456.1689453125 -10704.0009765625 2456.833740234375 -10704.0009765625 2457.503662109375 C -10704.0009765625 2461.638671875 -10700.6357421875 2465.002685546875 -10696.4990234375 2465.002685546875 M -10696.4990234375 2466.002685546875 C -10701.185546875 2466.002685546875 -10705.0009765625 2462.18798828125 -10705.0009765625 2457.503662109375 C -10705.0009765625 2456.728515625 -10704.896484375 2455.977783203125 -10704.701171875 2455.263916015625 L -10716.26171875 2443.701171875 C -10716.9775390625 2443.897705078125 -10717.7265625 2444 -10718.501953125 2444 C -10723.1884765625 2444 -10727.0009765625 2440.18798828125 -10727.0009765625 2435.498291015625 C -10727.0009765625 2433.993408203125 -10726.599609375 2432.510009765625 -10725.8427734375 2431.215087890625 L -10721.8994140625 2435.1591796875 L -10718.8408203125 2432.100830078125 L -10722.78515625 2428.156982421875 C -10721.490234375 2427.400390625 -10720.0087890625 2426.999267578125 -10718.501953125 2426.999267578125 C -10713.8115234375 2426.999267578125 -10710 2430.81396484375 -10710 2435.498291015625 C -10710 2436.273681640625 -10710.1025390625 2437.02490234375 -10710.2958984375 2437.735595703125 L -10698.7333984375 2449.300048828125 C -10698.021484375 2449.105712890625 -10697.271484375 2449.001953125 -10696.4990234375 2449.001953125 C -10691.8115234375 2449.001953125 -10688 2452.81396484375 -10688 2457.503662109375 C -10688 2459.008544921875 -10688.3984375 2460.491943359375 -10689.1572265625 2461.786865234375 L -10693.1015625 2457.843017578125 L -10696.1572265625 2460.901123046875 L -10692.212890625 2464.842529296875 C -10693.5078125 2465.6015625 -10694.9912109375 2466.002685546875 -10696.4990234375 2466.002685546875 Z" stroke="none" fill="#fff"/>
      </g>
      <g id="Group_5161" data-name="Group 5161" transform="translate(1501.156 322.376) rotate(45)">
        <g id="Rectangle_2800" data-name="Rectangle 2800" transform="translate(456.391 2006.318) rotate(90)" fill="#183474" stroke="#fff" stroke-linejoin="round" stroke-width="1">
          <rect width="37" height="9.44" stroke="none"/>
          <rect x="0.5" y="0.5" width="36" height="8.44" fill="none"/>
        </g>
        <g id="Rectangle_2802" data-name="Rectangle 2802" transform="translate(456.391 2002.295) rotate(90)" fill="#183474" stroke="#fff" stroke-linejoin="round" stroke-width="1">
          <rect width="5.133" height="9.44" stroke="none"/>
          <rect x="0.5" y="0.5" width="4.133" height="8.44" fill="none"/>
        </g>
        <g id="Union_94" data-name="Union 94" transform="translate(11173.949 -384.682)" fill="#183474" stroke-linecap="round" stroke-linejoin="round">
          <path d="M -10722.4296875 2436.21337890625 L -10726.5 2429.61669921875 L -10726.5 2427.499267578125 L -10718.0595703125 2427.499267578125 L -10718.0595703125 2429.608154296875 L -10722.4296875 2436.21337890625 Z" stroke="none"/>
          <path d="M -10726 2427.999267578125 L -10726 2429.474853515625 L -10722.4150390625 2435.28515625 L -10718.5595703125 2429.457763671875 L -10718.5595703125 2427.999267578125 L -10726 2427.999267578125 M -10727 2426.999267578125 L -10717.5595703125 2426.999267578125 L -10717.5595703125 2429.8486328125 L -10717.619140625 2429.8486328125 L -10722.4443359375 2437.141845703125 L -10726.9443359375 2429.8486328125 L -10727 2429.8486328125 L -10727 2426.999267578125 Z" stroke="none" fill="#fff"/>
        </g>
      </g>
    </g>
  </g>
</svg>
