<svg xmlns="http://www.w3.org/2000/svg" xmlns:xlink="http://www.w3.org/1999/xlink" width="215" height="90.049" viewBox="0 0 215 90.049">
  <defs>
    <clipPath id="clip-path">
      <rect width="215" height="90.049" fill="none"/>
    </clipPath>
  </defs>
  <g id="Repeat_Grid_23" data-name="Repeat Grid 23" opacity="0.636" clip-path="url(#clip-path)">
    <g transform="translate(-200 -861.768)">
      <line id="Line_57" data-name="Line 57" y2="231.239" transform="translate(200.5 861.768)" fill="none" stroke="#58c9cb" stroke-width="1"/>
    </g>
    <g transform="translate(-187 -861.768)">
      <line id="Line_57-2" data-name="Line 57" y2="231.239" transform="translate(200.5 861.768)" fill="none" stroke="#58c9cb" stroke-width="1"/>
    </g>
    <g transform="translate(-174 -861.768)">
      <line id="Line_57-3" data-name="Line 57" y2="231.239" transform="translate(200.5 861.768)" fill="none" stroke="#58c9cb" stroke-width="1"/>
    </g>
    <g transform="translate(-161 -861.768)">
      <line id="Line_57-4" data-name="Line 57" y2="231.239" transform="translate(200.5 861.768)" fill="none" stroke="#58c9cb" stroke-width="1"/>
    </g>
    <g transform="translate(-148 -861.768)">
      <line id="Line_57-5" data-name="Line 57" y2="231.239" transform="translate(200.5 861.768)" fill="none" stroke="#58c9cb" stroke-width="1"/>
    </g>
    <g transform="translate(-135 -861.768)">
      <line id="Line_57-6" data-name="Line 57" y2="231.239" transform="translate(200.5 861.768)" fill="none" stroke="#58c9cb" stroke-width="1"/>
    </g>
    <g transform="translate(-122 -861.768)">
      <line id="Line_57-7" data-name="Line 57" y2="231.239" transform="translate(200.5 861.768)" fill="none" stroke="#58c9cb" stroke-width="1"/>
    </g>
    <g transform="translate(-109 -861.768)">
      <line id="Line_57-8" data-name="Line 57" y2="231.239" transform="translate(200.5 861.768)" fill="none" stroke="#58c9cb" stroke-width="1"/>
    </g>
    <g transform="translate(-96 -861.768)">
      <line id="Line_57-9" data-name="Line 57" y2="231.239" transform="translate(200.5 861.768)" fill="none" stroke="#58c9cb" stroke-width="1"/>
    </g>
    <g transform="translate(-83 -861.768)">
      <line id="Line_57-10" data-name="Line 57" y2="231.239" transform="translate(200.5 861.768)" fill="none" stroke="#58c9cb" stroke-width="1"/>
    </g>
    <g transform="translate(-70 -861.768)">
      <line id="Line_57-11" data-name="Line 57" y2="231.239" transform="translate(200.5 861.768)" fill="none" stroke="#58c9cb" stroke-width="1"/>
    </g>
    <g transform="translate(-57 -861.768)">
      <line id="Line_57-12" data-name="Line 57" y2="231.239" transform="translate(200.5 861.768)" fill="none" stroke="#58c9cb" stroke-width="1"/>
    </g>
    <g transform="translate(-44 -861.768)">
      <line id="Line_57-13" data-name="Line 57" y2="231.239" transform="translate(200.5 861.768)" fill="none" stroke="#58c9cb" stroke-width="1"/>
    </g>
    <g transform="translate(-31 -861.768)">
      <line id="Line_57-14" data-name="Line 57" y2="231.239" transform="translate(200.5 861.768)" fill="none" stroke="#58c9cb" stroke-width="1"/>
    </g>
    <g transform="translate(-18 -861.768)">
      <line id="Line_57-15" data-name="Line 57" y2="231.239" transform="translate(200.5 861.768)" fill="none" stroke="#58c9cb" stroke-width="1"/>
    </g>
    <g transform="translate(-5 -861.768)">
      <line id="Line_57-16" data-name="Line 57" y2="231.239" transform="translate(200.5 861.768)" fill="none" stroke="#58c9cb" stroke-width="1"/>
    </g>
    <g transform="translate(8 -861.768)">
      <line id="Line_57-17" data-name="Line 57" y2="231.239" transform="translate(200.5 861.768)" fill="none" stroke="#58c9cb" stroke-width="1"/>
    </g>
  </g>
</svg>
