<svg xmlns="http://www.w3.org/2000/svg" width="179.539" height="81.521" viewBox="0 0 179.539 81.521">
  <g id="Group_6166" data-name="Group 6166" transform="translate(-41 -5745.661)">
    <line id="Line_57" data-name="Line 57" y2="81.521" transform="translate(41.5 5745.661)" fill="none" stroke="#efc07b" stroke-width="1"/>
    <line id="Line_57-2" data-name="Line 57" y2="81.521" transform="translate(52.002 5745.661)" fill="none" stroke="#efc07b" stroke-width="1"/>
    <line id="Line_57-3" data-name="Line 57" y2="81.521" transform="translate(62.505 5745.661)" fill="none" stroke="#efc07b" stroke-width="1"/>
    <line id="Line_57-4" data-name="Line 57" y2="81.521" transform="translate(73.007 5745.661)" fill="none" stroke="#efc07b" stroke-width="1"/>
    <line id="Line_57-5" data-name="Line 57" y2="81.521" transform="translate(83.509 5745.661)" fill="none" stroke="#efc07b" stroke-width="1"/>
    <line id="Line_57-6" data-name="Line 57" y2="81.521" transform="translate(94.011 5745.661)" fill="none" stroke="#efc07b" stroke-width="1"/>
    <line id="Line_57-7" data-name="Line 57" y2="81.521" transform="translate(104.514 5745.661)" fill="none" stroke="#efc07b" stroke-width="1"/>
    <line id="Line_57-8" data-name="Line 57" y2="81.521" transform="translate(115.016 5745.661)" fill="none" stroke="#efc07b" stroke-width="1"/>
    <line id="Line_57-9" data-name="Line 57" y2="81.521" transform="translate(125.518 5745.661)" fill="none" stroke="#efc07b" stroke-width="1"/>
    <line id="Line_57-10" data-name="Line 57" y2="81.521" transform="translate(136.021 5745.661)" fill="none" stroke="#efc07b" stroke-width="1"/>
    <line id="Line_57-11" data-name="Line 57" y2="81.521" transform="translate(146.523 5745.661)" fill="none" stroke="#efc07b" stroke-width="1"/>
    <line id="Line_57-12" data-name="Line 57" y2="81.521" transform="translate(157.025 5745.661)" fill="none" stroke="#efc07b" stroke-width="1"/>
    <line id="Line_57-13" data-name="Line 57" y2="81.521" transform="translate(167.527 5745.661)" fill="none" stroke="#efc07b" stroke-width="1"/>
    <line id="Line_57-14" data-name="Line 57" y2="81.521" transform="translate(178.03 5745.661)" fill="none" stroke="#efc07b" stroke-width="1"/>
    <line id="Line_57-15" data-name="Line 57" y2="81.521" transform="translate(188.532 5745.661)" fill="none" stroke="#efc07b" stroke-width="1"/>
    <line id="Line_57-16" data-name="Line 57" y2="81.521" transform="translate(199.034 5745.661)" fill="none" stroke="#efc07b" stroke-width="1"/>
    <line id="Line_57-17" data-name="Line 57" y2="81.521" transform="translate(209.537 5745.661)" fill="none" stroke="#efc07b" stroke-width="1"/>
    <line id="Line_57-18" data-name="Line 57" y2="81.521" transform="translate(220.039 5745.661)" fill="none" stroke="#efc07b" stroke-width="1"/>
  </g>
</svg>
