<svg xmlns="http://www.w3.org/2000/svg" xmlns:xlink="http://www.w3.org/1999/xlink" width="234" height="261" viewBox="0 0 234 261">
  <defs>
    <clipPath id="clip-path">
      <rect id="Rectangle_1955" data-name="Rectangle 1955" width="234" height="261" transform="translate(-0.388 -0.85)" fill="#e6eaee"/>
    </clipPath>
  </defs>
  <g id="Mask_Group_154" data-name="Mask Group 154" transform="translate(0.388 0.85)" clip-path="url(#clip-path)">
    <path id="Union_52" data-name="Union 52" d="M149.112,117.5,0,216.755V174.086L149.112,77.1,296.52,174.086v42.669Zm0-77.1L0,139.656V96.987L149.113,0,296.52,96.987v42.669Z" transform="translate(233.612 258.459) rotate(180)" fill="#e6eaee"/>
  </g>
</svg>
