<svg xmlns="http://www.w3.org/2000/svg" width="170" height="80.213" viewBox="0 0 170 80.213">
  <g id="Group_4561" data-name="Group 4561" transform="translate(-1097.5 -723.3)">
    <line id="Line_667" data-name="Line 667" y2="80.213" transform="translate(1098 723.3)" fill="none" stroke="#fff" stroke-width="1.5"/>
    <line id="Line_668" data-name="Line 668" y2="80.213" transform="translate(1111 723.3)" fill="none" stroke="#fff" stroke-width="1.5"/>
    <line id="Line_669" data-name="Line 669" y2="80.213" transform="translate(1124 723.3)" fill="none" stroke="#fff" stroke-width="1.5"/>
    <line id="Line_670" data-name="Line 670" y2="80.213" transform="translate(1137 723.3)" fill="none" stroke="#fff" stroke-width="1.5"/>
    <line id="Line_671" data-name="Line 671" y2="80.213" transform="translate(1150 723.3)" fill="none" stroke="#fff" stroke-width="1.5"/>
    <line id="Line_672" data-name="Line 672" y2="80.213" transform="translate(1163 723.3)" fill="none" stroke="#fff" stroke-width="1.5"/>
    <line id="Line_673" data-name="Line 673" y2="80.213" transform="translate(1176 723.3)" fill="none" stroke="#fff" stroke-width="1.5"/>
    <line id="Line_674" data-name="Line 674" y2="80.213" transform="translate(1189 723.3)" fill="none" stroke="#fff" stroke-width="1.5"/>
    <line id="Line_675" data-name="Line 675" y2="80.213" transform="translate(1202 723.3)" fill="none" stroke="#fff" stroke-width="1.5"/>
    <line id="Line_676" data-name="Line 676" y2="80.213" transform="translate(1215 723.3)" fill="none" stroke="#fff" stroke-width="1.5"/>
    <line id="Line_677" data-name="Line 677" y2="80.213" transform="translate(1228 723.3)" fill="none" stroke="#fff" stroke-width="1.5"/>
    <line id="Line_678" data-name="Line 678" y2="80.213" transform="translate(1241 723.3)" fill="none" stroke="#fff" stroke-width="1.5"/>
    <line id="Line_679" data-name="Line 679" y2="80.213" transform="translate(1254 723.3)" fill="none" stroke="#fff" stroke-width="1.5"/>
    <line id="Line_680" data-name="Line 680" y2="80.213" transform="translate(1267 723.3)" fill="none" stroke="#fff" stroke-width="1.5"/>
  </g>
</svg>
