<svg xmlns="http://www.w3.org/2000/svg" width="58" height="68" viewBox="0 0 58 68">
  <path id="Subtraction_21" data-name="Subtraction 21" d="M68,58H0V34.959A35.589,35.589,0,0,1,2.672,21.351,34.913,34.913,0,0,1,9.958,10.239,33.85,33.85,0,0,1,20.766,2.747a33.251,33.251,0,0,1,26.469,0,33.85,33.85,0,0,1,10.807,7.492,34.913,34.913,0,0,1,7.286,11.112A35.589,35.589,0,0,1,68,34.959V58Z" transform="translate(58) rotate(90)" fill="#365A58"/>
</svg>
