<svg xmlns="http://www.w3.org/2000/svg" width="282.744" height="20.425" viewBox="0 0 282.744 20.425">
  <g id="Group_3735" data-name="Group 3735" transform="translate(-352.5 75.95)">
    <g id="Group_2056" data-name="Group 2056" transform="translate(635.244 -75.95) rotate(90)">
      <circle id="Ellipse_5" data-name="Ellipse 5" cx="10.212" cy="10.212" r="10.212" transform="translate(0 262.319)" fill="#B74615"/>
      <path id="Path_47" data-name="Path 47" d="M0,155.661V0" transform="translate(10.212 30.423)" fill="none" stroke="#B74615" stroke-linecap="round" stroke-width="1" stroke-dasharray="3 3"/>
      <g id="Group_1765" data-name="Group 1765" transform="translate(2.544 198.622)">
        <line id="Line_1" data-name="Line 1" x2="15.339" transform="translate(0 51.159)" fill="none" stroke="#B74615" stroke-linecap="round" stroke-width="2"/>
        <line id="Line_2" data-name="Line 2" x2="15.339" transform="translate(0 33.313)" fill="none" stroke="#B74615" stroke-linecap="round" stroke-width="2"/>
        <line id="Line_3" data-name="Line 3" x2="15.339" transform="translate(0 16.656)" fill="none" stroke="#B74615" stroke-linecap="round" stroke-width="2"/>
        <line id="Line_4" data-name="Line 4" x2="15.339" transform="translate(0 0)" fill="none" stroke="#B74615" stroke-linecap="round" stroke-width="2"/>
      </g>
      <rect id="Rectangle_1844" data-name="Rectangle 1844" width="20.425" height="20.425" transform="translate(0 0)" fill="#B74615"/>
    </g>
  </g>
</svg>
