<svg xmlns="http://www.w3.org/2000/svg" width="55.76" height="65.645" viewBox="0 0 55.76 65.645">
  <path id="Polygon_23" data-name="Polygon 23" d="M32.823,0,65.645,55.76H0Z" transform="translate(0 65.645) rotate(-90)" fill="#B74615"/>
</svg>
