<svg xmlns="http://www.w3.org/2000/svg" xmlns:xlink="http://www.w3.org/1999/xlink" width="202" height="86" viewBox="0 0 202 86">
  <defs>
    <clipPath id="clip-path">
      <rect id="Rectangle_3186" data-name="Rectangle 3186" width="202" height="86" transform="translate(0.001)" fill="#808284"/>
    </clipPath>
  </defs>
  <g id="Mask_Group_320" data-name="Mask Group 320" transform="translate(-0.001)" opacity="0.637" clip-path="url(#clip-path)">
    <path id="Union_101" data-name="Union 101" d="M151.631,51.233v.221L78.768,100.517,0,48.084v22.54l78.768,51.233,77.868-51.233v-.183L230.4,21.34l77.868,52.433V51.233L230.4,0Zm0,40.727v.221L78.768,141.245,0,88.812v22.54l78.768,51.233,77.867-51.233v-.183l73.763-49.1L308.266,114.5V91.96L230.4,40.727Zm0,40.428v.221L78.768,181.673,0,129.24v22.54l78.768,51.233,77.868-51.233V151.6L230.4,102.5l77.868,52.433v-22.54L230.4,81.156Z" transform="translate(308.268 81.102) rotate(180)" fill="#808284"/>
  </g>
</svg>
