<svg xmlns="http://www.w3.org/2000/svg" width="58" height="68" viewBox="0 0 58 68">
  <path id="Subtraction_16" data-name="Subtraction 16" d="M68,0H0V23.041A35.588,35.588,0,0,0,2.672,36.649,34.913,34.913,0,0,0,9.958,47.761a33.851,33.851,0,0,0,10.807,7.492,33.251,33.251,0,0,0,26.469,0,33.851,33.851,0,0,0,10.807-7.492,34.913,34.913,0,0,0,7.287-11.112A35.589,35.589,0,0,0,68,23.041V0Z" transform="translate(58) rotate(90)" fill="#efc07b"/>
</svg>
