<svg xmlns="http://www.w3.org/2000/svg" width="135.966" height="186" viewBox="0 0 135.966 186">
  <g id="Group_4569" data-name="Group 4569" transform="translate(135.966) rotate(90)">
    <path id="Path_1019" data-name="Path 1019" d="M0,0V26.765L92.465,87.6,186,26.765V0L92.465,62.263Z" transform="translate(0 0)" fill="#fff"/>
    <path id="Path_1021" data-name="Path 1021" d="M0,0V26.765L92.465,87.6,186,26.765V0L92.465,62.263Z" transform="translate(0 48.363)" fill="#fff"/>
  </g>
</svg>
