<svg xmlns="http://www.w3.org/2000/svg" xmlns:xlink="http://www.w3.org/1999/xlink" width="225" height="98" viewBox="0 0 225 98">
  <defs>
    <clipPath id="clip-path">
      <rect id="Rectangle_3425" data-name="Rectangle 3425" width="225" height="98" transform="translate(0 0.291)" fill="#fff"/>
    </clipPath>
  </defs>
  <g id="Mask_Group_3482" data-name="Mask Group 3482" transform="translate(0 -0.291)" clip-path="url(#clip-path)">
    <path id="Union_114" data-name="Union 114" d="M189.488,186.041v-.277L98.434,124.452,0,189.975V161.808L98.434,97.784l97.308,64.024v.229l92.18,61.36,97.308-65.524v28.167l-97.308,64.024Zm0-47.262V138.5L98.434,77.19,0,142.713V114.546L98.434,50.522l97.308,64.024v.228l92.18,61.36,97.308-65.524v28.167L287.922,202.8Zm0-50.522V87.98L98.434,26.668,0,92.191V64.024L98.434,0l97.308,64.024v.229l92.18,61.36L385.23,60.09V88.257l-97.308,64.024Z" transform="translate(363.626 252.23) rotate(180)" fill="#fff"/>
  </g>
</svg>
