<svg xmlns="http://www.w3.org/2000/svg" xmlns:xlink="http://www.w3.org/1999/xlink" width="356" height="211" viewBox="0 0 356 211">
  <defs>
    <clipPath id="clip-path">
      <rect id="Rectangle_1957" data-name="Rectangle 1957" width="159" height="106" transform="translate(0.087)" fill="#fff"/>
    </clipPath>
  </defs>
  <g id="Group_3935" data-name="Group 3935" transform="translate(-7712 9298)">
    <g id="Group_3950" data-name="Group 3950">
      <rect id="Rectangle_1956" data-name="Rectangle 1956" width="356" height="211" transform="translate(7712 -9298)" fill="#504620"/>
      <g id="Mask_Group_155" data-name="Mask Group 155" transform="translate(7908.912 -9298)" clip-path="url(#clip-path)">
        <g id="Group_3933" data-name="Group 3933" transform="translate(6.722 -47.233)">
          <path id="Path_1156" data-name="Path 1156" d="M8040.837-9298.337c.282-.113,5.242,0,5.242,0s11.842,70.072-60.141,91.623a73.721,73.721,0,0,1,3.92-58.371C7989.947-9265.075,8019.542-9268.524,8040.837-9298.337Z" transform="translate(-7925.039 9345.297)" fill="#2d2812"/>
          <path id="Path_1158" data-name="Path 1158" d="M59.135.05c.282-.113,5.242,0,5.242,0S76.219,70.123,4.236,91.673A73.721,73.721,0,0,1,8.156,33.3C8.245,33.312,37.839,29.863,59.135.05Z" transform="translate(83.187 87.537) rotate(-45)" fill="#2d2812"/>
          <path id="Path_1159" data-name="Path 1159" d="M59.135.05c.282-.113,5.242,0,5.242,0S76.219,70.123,4.236,91.673A73.721,73.721,0,0,1,8.156,33.3C8.245,33.312,37.839,29.863,59.135.05Z" transform="translate(132.329 106.249) rotate(-84)" fill="#2d2812"/>
          <path id="Path_1157" data-name="Path 1157" d="M59.135.05c.282-.113,5.242,0,5.242,0S76.219,70.123,4.236,91.673A73.721,73.721,0,0,1,8.156,33.3C8.245,33.312,37.839,29.863,59.135.05Z" transform="matrix(0.682, 0.731, -0.731, 0.682, 67.046, 0)" fill="#6f6953"/>
        </g>
      </g>
    </g>
    <text id="_02" data-name="02" transform="translate(7729.159 -9117.322)" fill="#fff" font-size="105" font-family="Roboto-Bold, Roboto" font-weight="700" letter-spacing="0.025em" opacity="0.898"><tspan x="0" y="0">02</tspan></text>
  </g>
</svg>
