<svg xmlns="http://www.w3.org/2000/svg" width="208.204" height="22.45" viewBox="0 0 208.204 22.45">
  <g id="Group_1757" data-name="Group 1757" transform="translate(-1945.827 -3311.005) rotate(-90)">
    <circle id="Ellipse_5" data-name="Ellipse 5" cx="11.225" cy="11.225" r="11.225" transform="translate(-3333.456 1945.827)" fill="#F7C06E"/>
    <path id="Path_33" data-name="Path 33" d="M0,0V187.071" transform="translate(-3323.233 1965.46)" fill="none" stroke="#F7C06E" stroke-linecap="round" stroke-width="1" stroke-dasharray="7 4"/>
    <g id="Group_1758" data-name="Group 1758" transform="translate(-3318.067 2152.531) rotate(-180)">
      <line id="Line_1" data-name="Line 1" x2="10.331" transform="translate(0 0)" fill="none" stroke="#F7C06E" stroke-linecap="round" stroke-width="3"/>
      <line id="Line_2" data-name="Line 2" x2="10.331" transform="translate(0 12.02)" fill="none" stroke="#F7C06E" stroke-linecap="round" stroke-width="3"/>
      <line id="Line_3" data-name="Line 3" x2="10.331" transform="translate(0 23.238)" fill="none" stroke="#F7C06E" stroke-linecap="round" stroke-width="3"/>
      <line id="Line_4" data-name="Line 4" x2="10.331" transform="translate(0 34.457)" fill="none" stroke="#F7C06E" stroke-linecap="round" stroke-width="3"/>
    </g>
    <rect id="Rectangle_12" data-name="Rectangle 12" width="19.731" height="19.731" transform="translate(-3332.418 1985.837)" fill="#F7C06E"/>
  </g>
</svg>
