<svg xmlns="http://www.w3.org/2000/svg" xmlns:xlink="http://www.w3.org/1999/xlink" width="293" height="60" viewBox="0 0 293 60">
  <defs>
    <clipPath id="clip-path">
      <rect id="Rectangle_1777-3" width="293" height="60" transform="translate(0.3 237.14)" fill="none"/>
    </clipPath>
  </defs>
  <g id="Layer_1" transform="translate(-0.301 -340)">
    <rect id="Rectangle_1777" width="293" height="60" transform="translate(0.3 340)" fill="#01064e"/>
    <g id="Group_1765" transform="translate(204.793 -119.485) rotate(90)">
      <line id="Line_1-2" x1="7.856" transform="translate(484.23 133.053)" fill="none" stroke="#fff" stroke-linecap="round" stroke-width="2.63"/>
      <line id="Line_2-2" x1="7.856" transform="translate(484.23 123.919)" fill="none" stroke="#fff" stroke-linecap="round" stroke-width="2.63"/>
      <line id="Line_3-2" x1="7.856" transform="translate(484.23 115.398)" fill="none" stroke="#fff" stroke-linecap="round" stroke-width="2.63"/>
      <line id="Line_4-2" x1="7.856" transform="translate(484.23 106.87)" fill="none" stroke="#fff" stroke-linecap="round" stroke-width="2.63"/>
    </g>
    <g id="Group_6305" data-name="Group 6305" transform="translate(0 102.861)" clip-path="url(#clip-path)">
      <path id="Union_50-2" d="M226.831,200.14l107.653,70.829V302.13L226.831,229.64l-108.9,72.49v-.283L46.424,348.892-62.47,278.068V246.907l108.9,72.49,71.508-48.149v-.274l12.024-7.817,24.121-15.693h0l72.749-47.324Zm0,40.322,107.653,70.829v31.161l-107.653-72.49-108.9,72.49v-.283L46.424,389.214-62.47,318.385V287.224l108.894,72.49,71.508-48.149v-.274l12.029-7.822,24.116-16.24v.552l72.749-47.324Z" transform="translate(32.102 0)" fill="#b74615"/>
    </g>
  </g>
</svg>
